INDEX VERSION 1.126+C:\Users\Stewie G\Desktop\Bachelors thesis\seperate\.metadata\.plugins\org.eclipse.jdt.core
6883275.index
2039513904.index
607587346.index
25791713.index
2348333226.index
4131154508.index
3211075928.index
1875305977.index
2297283367.index
6861063.index
45983139.index
3754083526.index
227518059.index
180064255.index
1494891750.index
3876790213.index
